{
  "project_info": {
    "project_number": "702800747969",
    "firebase_url": "https://userinterface-cf766.firebaseio.com",
    "project_id": "userinterface-cf766",
    "storage_bucket": "userinterface-cf766.appspot.com"
  },
  "client": [
    {
      "client_info": {
        "mobilesdk_app_id": "1:702800747969:android:176704de4955f06a422340",
        "android_client_info": {
          "package_name": "com.example.userinterface"
        }
      },
      "oauth_client": [
        {
          "client_id": "702800747969-g78m5ihf91mtubqon7p0i3bfbll676aj.apps.googleusercontent.com",
          "client_type": 3
        }
      ],
      "api_key": [
        {
          "current_key": "AIzaSyDg8OInr-mESB2teDAImpruZAMppGPbBqk"
        }
      ],
      "services": {
        "appinvite_service": {
          "other_platform_oauth_client": [
            {
              "client_id": "702800747969-g78m5ihf91mtubqon7p0i3bfbll676aj.apps.googleusercontent.com",
              "client_type": 3
            }
          ]
        }
      }
    }
  ],
  "configuration_version": "1"
}